---
http_interactions:
- request:
    method: get
    uri: https://api.regulations.gov/v4/comments?api_key=<API_KEY>&filter%5BcommentOnId%5D=0900006483a6cba3
    body:
      encoding: US-ASCII
      string: ''
    headers:
      User-Agent:
      - Faraday v0.15.3
      Accept-Encoding:
      - gzip;q=1.0,deflate;q=0.6,identity;q=0.3
      Accept:
      - "*/*"
  response:
    status:
      code: 200
      message: ''
    headers:
      Date:
      - Fri, 23 Oct 2020 19:08:34 GMT
      Content-Type:
      - application/vnd.api+json;charset=utf-8
      Transfer-Encoding:
      - chunked
      Connection:
      - keep-alive
      X-Ratelimit-Limit:
      - '1000'
      X-Ratelimit-Remaining:
      - '989'
      Age:
      - '0'
      Via:
      - https/1.1 api-umbrella (ApacheTrafficServer [cMsSf ])
      X-Cache:
      - MISS
      Access-Control-Allow-Origin:
      - "*"
      Strict-Transport-Security:
      - max-age=31536000; preload
    body:
      encoding: UTF-8
      string: |-
        {
          "data" : [ {
            "id" : "FAA-2018-1084-0418",
            "type" : "comments",
            "attributes" : {
              "documentType" : "Public Submission",
              "highlightedContent" : null,
              "withdrawn" : false,
              "agencyId" : "FAA",
              "title" : "Comment from Jeramie Scott",
              "postedDate" : "2019-03-18T04:00:00Z"
            },
            "links" : {
              "self" : "https://api.regulations.gov/v4/comments/FAA-2018-1084-0418"
            }
          }, {
            "id" : "FAA-2018-1084-0208",
            "type" : "comments",
            "attributes" : {
              "documentType" : "Public Submission",
              "highlightedContent" : null,
              "withdrawn" : false,
              "agencyId" : "FAA",
              "title" : "Comment from Michael Giovagnoni",
              "postedDate" : "2019-02-19T05:00:00Z"
            },
            "links" : {
              "self" : "https://api.regulations.gov/v4/comments/FAA-2018-1084-0208"
            }
          }, {
            "id" : "FAA-2018-1084-0189",
            "type" : "comments",
            "attributes" : {
              "documentType" : "Public Submission",
              "highlightedContent" : null,
              "withdrawn" : false,
              "agencyId" : "FAA",
              "title" : "Comment from Jack Ferland",
              "postedDate" : "2019-02-19T05:00:00Z"
            },
            "links" : {
              "self" : "https://api.regulations.gov/v4/comments/FAA-2018-1084-0189"
            }
          }, {
            "id" : "FAA-2018-1084-0186",
            "type" : "comments",
            "attributes" : {
              "documentType" : "Public Submission",
              "highlightedContent" : null,
              "withdrawn" : false,
              "agencyId" : "FAA",
              "title" : "Comment from James Butler",
              "postedDate" : "2019-02-19T05:00:00Z"
            },
            "links" : {
              "self" : "https://api.regulations.gov/v4/comments/FAA-2018-1084-0186"
            }
          }, {
            "id" : "FAA-2018-1084-0130",
            "type" : "comments",
            "attributes" : {
              "documentType" : "Public Submission",
              "highlightedContent" : null,
              "withdrawn" : false,
              "agencyId" : "FAA",
              "title" : "Comment from Hiram Roldan",
              "postedDate" : "2019-02-19T05:00:00Z"
            },
            "links" : {
              "self" : "https://api.regulations.gov/v4/comments/FAA-2018-1084-0130"
            }
          }, {
            "id" : "FAA-2018-1084-0139",
            "type" : "comments",
            "attributes" : {
              "documentType" : "Public Submission",
              "highlightedContent" : null,
              "withdrawn" : false,
              "agencyId" : "FAA",
              "title" : "Comment from Randy Warkentin",
              "postedDate" : "2019-02-19T05:00:00Z"
            },
            "links" : {
              "self" : "https://api.regulations.gov/v4/comments/FAA-2018-1084-0139"
            }
          }, {
            "id" : "FAA-2018-1084-0227",
            "type" : "comments",
            "attributes" : {
              "documentType" : "Public Submission",
              "highlightedContent" : null,
              "withdrawn" : false,
              "agencyId" : "FAA",
              "title" : "Comment from Michael Giovagnoni",
              "postedDate" : "2019-02-19T05:00:00Z"
            },
            "links" : {
              "self" : "https://api.regulations.gov/v4/comments/FAA-2018-1084-0227"
            }
          }, {
            "id" : "FAA-2018-1084-0111",
            "type" : "comments",
            "attributes" : {
              "documentType" : "Public Submission",
              "highlightedContent" : null,
              "withdrawn" : false,
              "agencyId" : "FAA",
              "title" : "Comment from Paul Braun",
              "postedDate" : "2019-02-19T05:00:00Z"
            },
            "links" : {
              "self" : "https://api.regulations.gov/v4/comments/FAA-2018-1084-0111"
            }
          }, {
            "id" : "FAA-2018-1084-0212",
            "type" : "comments",
            "attributes" : {
              "documentType" : "Public Submission",
              "highlightedContent" : null,
              "withdrawn" : false,
              "agencyId" : "FAA",
              "title" : "Comment from Ronald Gaspard",
              "postedDate" : "2019-02-19T05:00:00Z"
            },
            "links" : {
              "self" : "https://api.regulations.gov/v4/comments/FAA-2018-1084-0212"
            }
          }, {
            "id" : "FAA-2018-1084-0281",
            "type" : "comments",
            "attributes" : {
              "documentType" : "Public Submission",
              "highlightedContent" : null,
              "withdrawn" : false,
              "agencyId" : "FAA",
              "title" : "Comment from Al Turner",
              "postedDate" : "2019-02-19T05:00:00Z"
            },
            "links" : {
              "self" : "https://api.regulations.gov/v4/comments/FAA-2018-1084-0281"
            }
          }, {
            "id" : "FAA-2018-1084-0315",
            "type" : "comments",
            "attributes" : {
              "documentType" : "Public Submission",
              "highlightedContent" : null,
              "withdrawn" : false,
              "agencyId" : "FAA",
              "title" : "Comment from Gordon Mano",
              "postedDate" : "2019-02-19T05:00:00Z"
            },
            "links" : {
              "self" : "https://api.regulations.gov/v4/comments/FAA-2018-1084-0315"
            }
          }, {
            "id" : "FAA-2018-1084-0310",
            "type" : "comments",
            "attributes" : {
              "documentType" : "Public Submission",
              "highlightedContent" : null,
              "withdrawn" : false,
              "agencyId" : "FAA",
              "title" : "Comment from Benjamin Love",
              "postedDate" : "2019-02-19T05:00:00Z"
            },
            "links" : {
              "self" : "https://api.regulations.gov/v4/comments/FAA-2018-1084-0310"
            }
          }, {
            "id" : "FAA-2018-1084-0119",
            "type" : "comments",
            "attributes" : {
              "documentType" : "Public Submission",
              "highlightedContent" : null,
              "withdrawn" : false,
              "agencyId" : "FAA",
              "title" : "Comment from Nhan Phu Pham",
              "postedDate" : "2019-02-19T05:00:00Z"
            },
            "links" : {
              "self" : "https://api.regulations.gov/v4/comments/FAA-2018-1084-0119"
            }
          }, {
            "id" : "FAA-2018-1084-0299",
            "type" : "comments",
            "attributes" : {
              "documentType" : "Public Submission",
              "highlightedContent" : null,
              "withdrawn" : false,
              "agencyId" : "FAA",
              "title" : "Comment from Drew Kedzie",
              "postedDate" : "2019-02-19T05:00:00Z"
            },
            "links" : {
              "self" : "https://api.regulations.gov/v4/comments/FAA-2018-1084-0299"
            }
          }, {
            "id" : "FAA-2018-1084-0295",
            "type" : "comments",
            "attributes" : {
              "documentType" : "Public Submission",
              "highlightedContent" : null,
              "withdrawn" : false,
              "agencyId" : "FAA",
              "title" : "Comment from Matt Lee",
              "postedDate" : "2019-02-19T05:00:00Z"
            },
            "links" : {
              "self" : "https://api.regulations.gov/v4/comments/FAA-2018-1084-0295"
            }
          }, {
            "id" : "FAA-2018-1084-0206",
            "type" : "comments",
            "attributes" : {
              "documentType" : "Public Submission",
              "highlightedContent" : null,
              "withdrawn" : false,
              "agencyId" : "FAA",
              "title" : "Comment from Harry Anonymous",
              "postedDate" : "2019-02-19T05:00:00Z"
            },
            "links" : {
              "self" : "https://api.regulations.gov/v4/comments/FAA-2018-1084-0206"
            }
          }, {
            "id" : "FAA-2018-1084-0280",
            "type" : "comments",
            "attributes" : {
              "documentType" : "Public Submission",
              "highlightedContent" : null,
              "withdrawn" : false,
              "agencyId" : "FAA",
              "title" : "Comment from Shaun Hautly",
              "postedDate" : "2019-02-19T05:00:00Z"
            },
            "links" : {
              "self" : "https://api.regulations.gov/v4/comments/FAA-2018-1084-0280"
            }
          }, {
            "id" : "FAA-2018-1084-0271",
            "type" : "comments",
            "attributes" : {
              "documentType" : "Public Submission",
              "highlightedContent" : null,
              "withdrawn" : false,
              "agencyId" : "FAA",
              "title" : "Comment from Emilio Youmans",
              "postedDate" : "2019-02-19T05:00:00Z"
            },
            "links" : {
              "self" : "https://api.regulations.gov/v4/comments/FAA-2018-1084-0271"
            }
          }, {
            "id" : "FAA-2018-1084-0243",
            "type" : "comments",
            "attributes" : {
              "documentType" : "Public Submission",
              "highlightedContent" : null,
              "withdrawn" : false,
              "agencyId" : "FAA",
              "title" : "Comment from Joseph Orsolini",
              "postedDate" : "2019-02-19T05:00:00Z"
            },
            "links" : {
              "self" : "https://api.regulations.gov/v4/comments/FAA-2018-1084-0243"
            }
          }, {
            "id" : "FAA-2018-1084-0156",
            "type" : "comments",
            "attributes" : {
              "documentType" : "Public Submission",
              "highlightedContent" : null,
              "withdrawn" : false,
              "agencyId" : "FAA",
              "title" : "Comment from Christopher Henning",
              "postedDate" : "2019-02-19T05:00:00Z"
            },
            "links" : {
              "self" : "https://api.regulations.gov/v4/comments/FAA-2018-1084-0156"
            }
          }, {
            "id" : "FAA-2018-1084-0137",
            "type" : "comments",
            "attributes" : {
              "documentType" : "Public Submission",
              "highlightedContent" : null,
              "withdrawn" : false,
              "agencyId" : "FAA",
              "title" : "Comment from jun pena",
              "postedDate" : "2019-02-19T05:00:00Z"
            },
            "links" : {
              "self" : "https://api.regulations.gov/v4/comments/FAA-2018-1084-0137"
            }
          }, {
            "id" : "FAA-2018-1084-0234",
            "type" : "comments",
            "attributes" : {
              "documentType" : "Public Submission",
              "highlightedContent" : null,
              "withdrawn" : false,
              "agencyId" : "FAA",
              "title" : "Comment from William Hoenstine",
              "postedDate" : "2019-02-19T05:00:00Z"
            },
            "links" : {
              "self" : "https://api.regulations.gov/v4/comments/FAA-2018-1084-0234"
            }
          }, {
            "id" : "FAA-2018-1084-0211",
            "type" : "comments",
            "attributes" : {
              "documentType" : "Public Submission",
              "highlightedContent" : null,
              "withdrawn" : false,
              "agencyId" : "FAA",
              "title" : "Comment from David Hartwig",
              "postedDate" : "2019-02-19T05:00:00Z"
            },
            "links" : {
              "self" : "https://api.regulations.gov/v4/comments/FAA-2018-1084-0211"
            }
          }, {
            "id" : "FAA-2018-1084-0217",
            "type" : "comments",
            "attributes" : {
              "documentType" : "Public Submission",
              "highlightedContent" : null,
              "withdrawn" : false,
              "agencyId" : "FAA",
              "title" : "Comment from Lauren Robison",
              "postedDate" : "2019-02-19T05:00:00Z"
            },
            "links" : {
              "self" : "https://api.regulations.gov/v4/comments/FAA-2018-1084-0217"
            }
          }, {
            "id" : "FAA-2018-1084-0209",
            "type" : "comments",
            "attributes" : {
              "documentType" : "Public Submission",
              "highlightedContent" : null,
              "withdrawn" : false,
              "agencyId" : "FAA",
              "title" : "Comment from Ernest Vaupel",
              "postedDate" : "2019-02-19T05:00:00Z"
            },
            "links" : {
              "self" : "https://api.regulations.gov/v4/comments/FAA-2018-1084-0209"
            }
          } ],
          "meta" : {
            "aggregations" : {
              "agencyId" : [ {
                "docCount" : 418,
                "value" : "FAA"
              } ],
              "postedDate" : [ ]
            },
            "filters" : { },
            "hasNextPage" : true,
            "hasPreviousPage" : false,
            "numberOfElements" : 25,
            "pageNumber" : 1,
            "pageSize" : 25,
            "totalElements" : 418,
            "totalPages" : 17,
            "firstPage" : true,
            "lastPage" : false
          }
        }
  recorded_at: Fri, 23 Oct 2020 19:08:34 GMT
- request:
    method: get
    uri: https://api.regulations.gov/v4/comments?api_key=<API_KEY>&filter%5BSearchTerm%5D=1k5-9l2j-gnbc
    body:
      encoding: US-ASCII
      string: ''
    headers:
      User-Agent:
      - Faraday v0.15.3
      Accept-Encoding:
      - gzip;q=1.0,deflate;q=0.6,identity;q=0.3
      Accept:
      - "*/*"
  response:
    status:
      code: 400
      message: ''
    headers:
      Date:
      - Thu, 21 Jan 2021 17:23:32 GMT
      Content-Type:
      - application/vnd.api+json;charset=utf-8
      Content-Length:
      - '102'
      Connection:
      - keep-alive
      X-Ratelimit-Limit:
      - '40'
      X-Ratelimit-Remaining:
      - '39'
      Age:
      - '0'
      Via:
      - https/1.1 api-umbrella (ApacheTrafficServer [cMsSf ])
      X-Cache:
      - MISS
      Access-Control-Allow-Origin:
      - "*"
      Strict-Transport-Security:
      - max-age=31536000; preload
    body:
      encoding: UTF-8
      string: |-
        {
          "errors" : [ {
            "status" : "400",
            "title" : "Invalid filter field name: SearchTerm"
          } ]
        }
  recorded_at: Thu, 21 Jan 2021 17:23:32 GMT
- request:
    method: get
    uri: https://api.regulations.gov/v4/comments?api_key=<API_KEY>&filter%5BsearchTerm%5D=1k5-9l2j-gnbc
    body:
      encoding: US-ASCII
      string: ''
    headers:
      User-Agent:
      - Faraday v0.15.3
      Accept-Encoding:
      - gzip;q=1.0,deflate;q=0.6,identity;q=0.3
      Accept:
      - "*/*"
  response:
    status:
      code: 200
      message: ''
    headers:
      Date:
      - Thu, 21 Jan 2021 18:25:42 GMT
      Content-Type:
      - application/vnd.api+json;charset=utf-8
      Content-Length:
      - '1342'
      Connection:
      - keep-alive
      X-Ratelimit-Limit:
      - '40'
      X-Ratelimit-Remaining:
      - '39'
      Age:
      - '1'
      Via:
      - https/1.1 api-umbrella (ApacheTrafficServer [cMsSf ])
      X-Cache:
      - MISS
      Access-Control-Allow-Origin:
      - "*"
      Strict-Transport-Security:
      - max-age=31536000; preload
    body:
      encoding: UTF-8
      string: |-
        {
          "data" : [ {
            "id" : "FINCEN-2020-0020-5871",
            "type" : "comments",
            "attributes" : {
              "documentType" : "Public Submission",
              "highlightedContent" : "",
              "withdrawn" : false,
              "agencyId" : "FINCEN",
              "title" : "Comment on FR Doc # 2020-28437",
              "objectId" : "09000064849e17d5",
              "postedDate" : "2021-01-07T05:00:00Z"
            },
            "links" : {
              "self" : "https://api.regulations.gov/v4/comments/FINCEN-2020-0020-5871"
            }
          } ],
          "meta" : {
            "aggregations" : {
              "agencyId" : [ {
                "docCount" : 1,
                "value" : "FINCEN"
              } ],
              "postedDate" : [ {
                "docCount" : 1,
                "label" : "Last 15 Days",
                "fromDate" : "2021-01-07 00:00:00",
                "toDate" : "2021-01-21 23:59:59"
              }, {
                "docCount" : 1,
                "label" : "Last 30 Days",
                "fromDate" : "2020-12-23 00:00:00",
                "toDate" : "2021-01-21 23:59:59"
              }, {
                "docCount" : 1,
                "label" : "Last 90 Days",
                "fromDate" : "2020-10-24 00:00:00",
                "toDate" : "2021-01-21 23:59:59"
              } ]
            },
            "filters" : { },
            "hasNextPage" : false,
            "hasPreviousPage" : false,
            "numberOfElements" : 1,
            "pageNumber" : 1,
            "pageSize" : 25,
            "totalElements" : 1,
            "totalPages" : 1,
            "firstPage" : true,
            "lastPage" : true
          }
        }
  recorded_at: Thu, 21 Jan 2021 18:25:42 GMT
- request:
    method: get
    uri: https://api-staging.regulations.gov/v4/document-comments-received-counts/HHS-OCR-2021-0006-0001?api_key=COjlEHEje5dOL5upgpkEd9M7BHgdHgv01xyyJ3pJ
    body:
      encoding: US-ASCII
      string: ''
    headers:
      User-Agent:
      - Faraday v0.15.3
      Accept-Encoding:
      - gzip;q=1.0,deflate;q=0.6,identity;q=0.3
      Accept:
      - "*/*"
  response:
    status:
      code: 200
      message: ''
    headers:
      Date:
      - Thu, 04 Mar 2021 23:11:57 GMT
      Content-Type:
      - application/vnd.api+json;charset=utf-8
      Content-Length:
      - '225'
      Connection:
      - keep-alive
      X-Ratelimit-Limit:
      - '1000'
      X-Ratelimit-Remaining:
      - '948'
      Age:
      - '0'
      Via:
      - https/1.1 api-umbrella (ApacheTrafficServer [cMsSf ])
      X-Cache:
      - MISS
      Access-Control-Allow-Origin:
      - "*"
      Strict-Transport-Security:
      - max-age=31536000; preload
    body:
      encoding: UTF-8
      string: '{"data":{"id":"HHS-OCR-2021-0006-0001","type":"document-comments-received-counts","attributes":{"count":550},"links":{"self":"https://api-staging.regulations.gov/v4/document-comments-received-counts/HHS-OCR-2021-0006-0001"}}}'
  recorded_at: Thu, 04 Mar 2021 23:11:57 GMT
- request:
    method: get
    uri: https://api-staging.regulations.gov/v4/comments?api_key=COjlEHEje5dOL5upgpkEd9M7BHgdHgv01xyyJ3pJ&filter%5BsearchTerm%5D=1k5-9l2j-gnbc
    body:
      encoding: US-ASCII
      string: ''
    headers:
      User-Agent:
      - Faraday v0.15.3
      Accept-Encoding:
      - gzip;q=1.0,deflate;q=0.6,identity;q=0.3
      Accept:
      - "*/*"
  response:
    status:
      code: 200
      message: ''
    headers:
      Date:
      - Thu, 04 Mar 2021 23:15:07 GMT
      Content-Type:
      - application/vnd.api+json;charset=utf-8
      Content-Length:
      - '1093'
      Connection:
      - keep-alive
      X-Ratelimit-Limit:
      - '1000'
      X-Ratelimit-Remaining:
      - '942'
      Age:
      - '1'
      Via:
      - https/1.1 api-umbrella (ApacheTrafficServer [cMsSf ])
      X-Cache:
      - MISS
      Access-Control-Allow-Origin:
      - "*"
      Strict-Transport-Security:
      - max-age=31536000; preload
    body:
      encoding: UTF-8
      string: |-
        {
          "data" : [ {
            "id" : "FINCEN-2020-0020-5871",
            "type" : "comments",
            "attributes" : {
              "documentType" : "Public Submission",
              "lastModifiedDate" : "2021-01-07T19:57:55Z",
              "highlightedContent" : "",
              "withdrawn" : false,
              "agencyId" : "FINCEN",
              "title" : "Comment on FR Doc # 2020-28437",
              "objectId" : "09000064849e17d5",
              "postedDate" : "2021-01-07T05:00:00Z"
            },
            "links" : {
              "self" : "https://api-staging.regulations.gov/v4/comments/FINCEN-2020-0020-5871"
            }
          } ],
          "meta" : {
            "aggregations" : {
              "agencyId" : [ {
                "docCount" : 1,
                "value" : "FINCEN"
              } ],
              "postedDate" : [ {
                "docCount" : 1,
                "label" : "Last 90 Days",
                "fromDate" : "2020-12-05 00:00:00",
                "toDate" : "2021-03-04 23:59:59"
              } ]
            },
            "filters" : { },
            "hasNextPage" : false,
            "hasPreviousPage" : false,
            "numberOfElements" : 1,
            "pageNumber" : 1,
            "pageSize" : 25,
            "totalElements" : 1,
            "totalPages" : 1,
            "firstPage" : true,
            "lastPage" : true
          }
        }
  recorded_at: Thu, 04 Mar 2021 23:15:07 GMT
recorded_with: VCR 6.0.0
